{
  "Hoja1": [
    [
      "SEMESTRE:           TERCER  AÑO – AULA 302"
    ],
    [
      "HORA",
      "LUNES",
      "MARTES",
      "MIERCOLES",
      "JUEVES",
      "VIERNES"
    ],
    [
      "07:00-07:50",
      "CS-A(P.HUERTAS)",
      "SO-A(K.GUEVARA)",
      "RCA-A(L.DELGADO)",
      "SO-A(K.GUEVARA)",
      "SO-A(K.GUEVARA)"
    ],
    [
      "07:50-08:40",
      "CS-A(P.HUERTAS)",
      "SO-A(K.GUEVARA)",
      "RCA-A(L.DELGADO)",
      "SO-A(K.GUEVARA)",
      "SO-A(K.GUEVARA)"
    ],
    [],
    [
      "08:50-09:40",
      "CS-C(JORGE R,)",
      "CS-A(T)(P.HUERTAS)",
      "RCD-A(L.DELGADO)",
      "FSI-A(V.CORNEJO)",
      "CS-C(JORGE R)-PROY"
    ],
    [
      "09:40 -10:30",
      "CS-C(JORGE R,)",
      "CS-A(T)(P.HUERTAS)",
      "RCD-A(L.DELGADO)",
      "FSI-A(V.CORNEJO)",
      "CS-C(JORGE R)-PROY"
    ],
    [],
    [
      "10:40-11:30",
      "RCD-A(L.DELGADO)",
      "FSI-A(V.CORNEJO)",
      "RCD-C(L.DELGADO)",
      "MIR-A(J.ZUÑIGA)"
    ],
    [
      "11:30-12:20",
      "RCD-A(L.DELGADO)",
      "FSI-A(V.CORNEJO)",
      "RCD-C(L.DELGADO)",
      "MIR-A(J.ZUÑIGA)"
    ],
    [
      "12:20-13:10",
      "RCD-C(L.DELGADO)",
      "FSI-A(V.CORNEJO)",
      null,
      "MIR-A(J.ZUÑIGA)",
      "TO(V.MACHACA)"
    ],
    [
      "13:10-14:00",
      "RCD-C(L.DELGADO)",
      null,
      null,
      null,
      "TO(V.MACHACA)"
    ],
    [
      "14:00-14:50",
      "RCD-B(L.DELGADO)",
      "SO-B(K.GUEVARA)",
      "TO-A(CH.PORTUGAL)",
      "SO-C(K.GUEVARA)",
      "CS-A(P.HUERTAS)"
    ],
    [
      "14:50-15:40",
      "RCD-B(L.DELGADO)",
      "SO-B(K.GUEVARA)",
      "TO-A(CH.PORTUGAL)",
      "SO-C(K.GUEVARA)",
      "CS-A(P.HUERTAS)"
    ],
    [],
    [
      "15:50-16:40",
      "FSI-B(JC.JUAREZ)",
      "TO-B(CH.PORTUGAL)",
      null,
      "FSI-B(JC.JUAREZ)"
    ],
    [
      "16:40-17:30",
      "FSI-B(JC.JUAREZ)",
      "TO-B(CH.PORTUGAL)",
      null,
      "FSI-B(JC.JUAREZ)"
    ],
    [],
    [
      "17:40-18:30",
      "FSI-B(JC.JUAREZ)",
      "TO-C(CH.PORTUGAL)",
      "TO(V.MACHACA)"
    ],
    [
      "18:30-19:20",
      null,
      "TO-C(CH.PORTUGAL)",
      "TO(V.MACHACA)"
    ],
    [
      "19:20-20:10"
    ],
    [
      "20:10-21:00"
    ],
    [
      "CS= Construcción de Software (A)(T)(L)(A) Percy Huertas (B)Giovani Cabrera ( C ) Jorge Ramirez "
    ],
    [
      "RCD=Redes y Comunicación de Datos (A,B)(T)(A,C)(L) Lucy Delgado (B,D)(L) Juan Ramirez Ticona"
    ],
    [
      "TO=Tecnologías de Objetos(A)(T) Vicente Machaca (L)(A,B,C) Christian Portugal"
    ],
    [
      "SO=Sistemas Operativos (A) Karim Guevara P. de la Vega"
    ],
    [
      "FSI=Fundamentos de Sistemas de Informacion (A) Victor  Cornejo Aparicio  (B) Juan C. Juarez Bueno"
    ],
    [
      "MIR=Métodos de Investigación y Redacción (A) Jesús Zuñiga Cueva"
    ]
  ]
}